## Interface: 30300 
## Title: SkillProfiler
## Notes: Store and load profiles for fast ready-ups for bossfights/trash
## Version: 1.0
## Author: Hipnotize
## SavedVariablesPerCharacter: SkillProfiler

embeds.xml

SkillProfiler.lua